…
1. (3 points) Once you have an idea of the structure of the data, please make each data set tidy (hint: think back to pivots) and store them as new objects. You will need both the original (wide) and tidy (long) data!  


```r
population_long <- population %>% 
  pivot_longer(-country,
               names_to = "year",
               values_to = "population")%>% 
  mutate(country=as_factor(country))
population_long
```

```
## # A tibble: 58,695 × 3
##    country     year  population
##    <fct>       <chr>      <dbl>
##  1 Afghanistan 1800     3280000
##  2 Afghanistan 1801     3280000
##  3 Afghanistan 1802     3280000
##  4 Afghanistan 1803     3280000
##  5 Afghanistan 1804     3280000
##  6 Afghanistan 1805     3280000
##  7 Afghanistan 1806     3280000
##  8 Afghanistan 1807     3280000
##  9 Afghanistan 1808     3280000
## 10 Afghanistan 1809     3280000
## # … with 58,685 more rows
```



```r
income_long <- income %>% 
  pivot_longer(-country,
               names_to = "year",
               values_to = "income")%>% 
  mutate(country=as_factor(country))
income_long
```

```
## # A tibble: 46,513 × 3
##    country     year  income
##    <fct>       <chr>  <dbl>
##  1 Afghanistan 1800     603
##  2 Afghanistan 1801     603
##  3 Afghanistan 1802     603
##  4 Afghanistan 1803     603
##  5 Afghanistan 1804     603
##  6 Afghanistan 1805     603
##  7 Afghanistan 1806     603
##  8 Afghanistan 1807     603
##  9 Afghanistan 1808     603
## 10 Afghanistan 1809     603
## # … with 46,503 more rows
```


```r
structure(life_expectancy)
```

```
## # A tibble: 187 × 302
##    country `1800` `1801` `1802` `1803` `1804` `1805` `1806` `1807` `1808` `1809`
##    <chr>    <dbl>  <dbl>  <dbl>  <dbl>  <dbl>  <dbl>  <dbl>  <dbl>  <dbl>  <dbl>
##  1 Afghan…   28.2   28.2   28.2   28.2   28.2   28.2   28.1   28.1   28.1   28.1
##  2 Albania   35.4   35.4   35.4   35.4   35.4   35.4   35.4   35.4   35.4   35.4
##  3 Algeria   28.8   28.8   28.8   28.8   28.8   28.8   28.8   28.8   28.8   28.8
##  4 Andorra   NA     NA     NA     NA     NA     NA     NA     NA     NA     NA  
##  5 Angola    27     27     27     27     27     27     27     27     27     27  
##  6 Antigu…   33.5   33.5   33.5   33.5   33.5   33.5   33.5   33.5   33.5   33.5
##  7 Argent…   33.2   33.2   33.2   33.2   33.2   33.2   33.2   33.2   33.2   33.2
##  8 Armenia   34     34     34     34     34     34     34     34     34     34  
##  9 Austra…   34     34     34     34     34     34     34     34     34     34  
## 10 Austria   34.4   34.4   34.4   34.4   34.4   34.4   34.4   34.4   34.4   34.4
## # … with 177 more rows, and 291 more variables: `1810` <dbl>, `1811` <dbl>,
## #   `1812` <dbl>, `1813` <dbl>, `1814` <dbl>, `1815` <dbl>, `1816` <dbl>,
## #   `1817` <dbl>, `1818` <dbl>, `1819` <dbl>, `1820` <dbl>, `1821` <dbl>,
## #   `1822` <dbl>, `1823` <dbl>, `1824` <dbl>, `1825` <dbl>, `1826` <dbl>,
## #   `1827` <dbl>, `1828` <dbl>, `1829` <dbl>, `1830` <dbl>, `1831` <dbl>,
## #   `1832` <dbl>, `1833` <dbl>, `1834` <dbl>, `1835` <dbl>, `1836` <dbl>,
## #   `1837` <dbl>, `1838` <dbl>, `1839` <dbl>, `1840` <dbl>, `1841` <dbl>, …
```

```r
life_expectancy_long <- life_expectancy %>% 
  pivot_longer(-country,
               names_to = "year",
               values_to = "life_expectancy")%>% 
  mutate(country=as_factor(country))
life_expectancy_long
```

```
## # A tibble: 56,287 × 3
##    country     year  life_expectancy
##    <fct>       <chr>           <dbl>
##  1 Afghanistan 1800             28.2
##  2 Afghanistan 1801             28.2
##  3 Afghanistan 1802             28.2
##  4 Afghanistan 1803             28.2
##  5 Afghanistan 1804             28.2
##  6 Afghanistan 1805             28.2
##  7 Afghanistan 1806             28.1
##  8 Afghanistan 1807             28.1
##  9 Afghanistan 1808             28.1
## 10 Afghanistan 1809             28.1
## # … with 56,277 more rows
```
…
```r
population_long %>%
  count(country) %>%
  select(country)
```

```
## # A tibble: 195 × 1
##    country            
##    <fct>              
##  1 Afghanistan        
##  2 Albania            
##  3 Algeria            
##  4 Andorra            
##  5 Angola             
##  6 Antigua and Barbuda
##  7 Argentina          
##  8 Armenia            
##  9 Australia          
## 10 Austria            
## # … with 185 more rows
```
…
```r
income_long %>%
  count(country) %>%
  select(country)
```

```
## # A tibble: 193 × 1
##    country            
##    <fct>              
##  1 Afghanistan        
##  2 Albania            
##  3 Algeria            
##  4 Andorra            
##  5 Angola             
##  6 Antigua and Barbuda
##  7 Argentina          
##  8 Armenia            
##  9 Australia          
## 10 Austria            
## # … with 183 more rows
```
…
```r
life_expectancy_long %>%
  count(country) %>%
  select(country)
```

```
## # A tibble: 187 × 1
##    country            
##    <fct>              
##  1 Afghanistan        
##  2 Albania            
##  3 Algeria            
##  4 Andorra            
##  5 Angola             
##  6 Antigua and Barbuda
##  7 Argentina          
##  8 Armenia            
##  9 Australia          
## 10 Austria            
## # … with 177 more rows
```
…
```r
life_expectancy_long %>% 
  filter(between(year, 1920, 2020)) %>% 
  group_by(country) %>% 
  summarize(mean_life_expectancy=mean(life_expectancy)) %>% 
  arrange(desc(mean_life_expectancy))
```

```
## # A tibble: 187 × 2
##    country        mean_life_expectancy
##    <fct>                         <dbl>
##  1 Sweden                         73.5
##  2 Norway                         73.2
##  3 Netherlands                    73.0
##  4 Iceland                        72.9
##  5 Australia                      72.7
##  6 Switzerland                    72.7
##  7 Denmark                        71.9
##  8 Canada                         71.8
##  9 New Zealand                    71.4
## 10 United Kingdom                 71.1
## # … with 177 more rows
```
…
9.(CORRECT) (3 points) Create three new objects that restrict each data set (life expectancy, population, income) to the years 1920-2020. Hint: I suggest doing this with the long form of your data. Once this is done, merge all three data sets using the code I provide below. You may need to adjust the code depending on how you have named your objects. I called mine `life_expectancy_100`, `population_100`, and `income_100`. For some of you, learning these `joins` will be important for your project.  

```r
population_final <- population_long %>% 
  filter(between(year, 1920, 2020))
 population_final
```

```
## # A tibble: 19,695 × 3
##    country     year  population
##    <fct>       <chr>      <dbl>
##  1 Afghanistan 1920    10600000
##  2 Afghanistan 1921    10500000
##  3 Afghanistan 1922    10300000
##  4 Afghanistan 1923     9710000
##  5 Afghanistan 1924     9200000
##  6 Afghanistan 1925     8720000
##  7 Afghanistan 1926     8260000
##  8 Afghanistan 1927     7830000
##  9 Afghanistan 1928     7420000
## 10 Afghanistan 1929     7100000
## # … with 19,685 more rows
```

```r
# New column created
```


```r
life_expectancy_final <- life_expectancy_long %>% 
  filter(between(year, 1920, 2020))
 life_expectancy_final
```

```
## # A tibble: 18,887 × 3
##    country     year  life_expectancy
##    <fct>       <chr>           <dbl>
##  1 Afghanistan 1920             30.6
##  2 Afghanistan 1921             30.7
##  3 Afghanistan 1922             30.8
##  4 Afghanistan 1923             30.8
##  5 Afghanistan 1924             30.9
##  6 Afghanistan 1925             31  
##  7 Afghanistan 1926             31  
##  8 Afghanistan 1927             31.1
##  9 Afghanistan 1928             31.1
## 10 Afghanistan 1929             31.2
## # … with 18,877 more rows
```



```r
income_final <- income_long %>% 
  filter(between(year, 1920, 2020)) # arranges from the years selected
 income_final
```

```
## # A tibble: 19,493 × 3
##    country     year  income
##    <fct>       <chr>  <dbl>
##  1 Afghanistan 1920    1490
##  2 Afghanistan 1921    1520
##  3 Afghanistan 1922    1550
##  4 Afghanistan 1923    1570
##  5 Afghanistan 1924    1600
##  6 Afghanistan 1925    1630
##  7 Afghanistan 1926    1650
##  8 Afghanistan 1927    1680
##  9 Afghanistan 1928    1710
## 10 Afghanistan 1929    1740
## # … with 19,483 more rows
```


```r
gapminder_join <- inner_join(life_expectancy_final, population_final, by= c("country", "year"))
gapminder_join <- inner_join(gapminder_join, income_final, by= c("country", "year"))
gapminder_join
```

```
## # A tibble: 18,887 × 5
##    country     year  life_expectancy population income
##    <fct>       <chr>           <dbl>      <dbl>  <dbl>
##  1 Afghanistan 1920             30.6   10600000   1490
##  2 Afghanistan 1921             30.7   10500000   1520
##  3 Afghanistan 1922             30.8   10300000   1550
##  4 Afghanistan 1923             30.8    9710000   1570
##  5 Afghanistan 1924             30.9    9200000   1600
##  6 Afghanistan 1925             31      8720000   1630
##  7 Afghanistan 1926             31      8260000   1650
##  8 Afghanistan 1927             31.1    7830000   1680
##  9 Afghanistan 1928             31.1    7420000   1710
## 10 Afghanistan 1929             31.2    7100000   1740
## # … with 18,877 more rows
```
…
