…
```
## [1] 17692    71
```


2. Use `janitor` to rename the columns and make them easier to use. As part of this cleaning step, change `country`, `isscaap_group_number`, `asfis_species_number`, and `fao_major_fishing_area` to data class factor. 

```r
fisheries <- 
  janitor::clean_names(fisheries)
fisheries
```

```
## # A tibble: 17,692 × 71
##    country common_…¹ issca…² issca…³ asfis…⁴ asfis…⁵ fao_m…⁶ measure x1950 x1951
##    <chr>   <chr>       <dbl> <chr>   <chr>   <chr>     <dbl> <chr>   <chr> <chr>
##  1 Albania Angelsha…      38 Sharks… 10903X… Squati…      37 Quanti… <NA>  <NA> 
##  2 Albania Atlantic…      36 Tunas,… 175010… Sarda …      37 Quanti… <NA>  <NA> 
##  3 Albania Barracud…      37 Miscel… 177100… Sphyra…      37 Quanti… <NA>  <NA> 
##  4 Albania Blue and…      45 Shrimp… 228020… Ariste…      37 Quanti… <NA>  <NA> 
##  5 Albania Blue whi…      32 Cods, … 148040… Microm…      37 Quanti… <NA>  <NA> 
##  6 Albania Bluefish       37 Miscel… 170202… Pomato…      37 Quanti… <NA>  <NA> 
##  7 Albania Bogue          33 Miscel… 170392… Boops …      37 Quanti… <NA>  <NA> 
##  8 Albania Caramote…      45 Shrimp… 228010… Penaeu…      37 Quanti… <NA>  <NA> 
##  9 Albania Catshark…      38 Sharks… 108010… Scylio…      37 Quanti… <NA>  <NA> 
## 10 Albania Common c…      57 Squids… 321020… Sepia …      37 Quanti… <NA>  <NA> 
## # … with 17,682 more rows, 61 more variables: x1952 <chr>, x1953 <chr>,
## #   x1954 <chr>, x1955 <chr>, x1956 <chr>, x1957 <chr>, x1958 <chr>,
## #   x1959 <chr>, x1960 <chr>, x1961 <chr>, x1962 <chr>, x1963 <chr>,
## #   x1964 <chr>, x1965 <chr>, x1966 <chr>, x1967 <chr>, x1968 <chr>,
## #   x1969 <chr>, x1970 <chr>, x1971 <chr>, x1972 <chr>, x1973 <chr>,
## #   x1974 <chr>, x1975 <chr>, x1976 <chr>, x1977 <chr>, x1978 <chr>,
## #   x1979 <chr>, x1980 <chr>, x1981 <chr>, x1982 <chr>, x1983 <chr>, …
```

```r
fisheries <- fisheries %>% 
  mutate_if(is.character, factor)
```

```r
fisheries
```

```
## # A tibble: 17,692 × 71
##    country common_…¹ issca…² issca…³ asfis…⁴ asfis…⁵ fao_m…⁶ measure x1950 x1951
##    <fct>   <fct>       <dbl> <fct>   <fct>   <fct>     <dbl> <fct>   <fct> <fct>
##  1 Albania Angelsha…      38 Sharks… 10903X… Squati…      37 Quanti… <NA>  <NA> 
##  2 Albania Atlantic…      36 Tunas,… 175010… Sarda …      37 Quanti… <NA>  <NA> 
##  3 Albania Barracud…      37 Miscel… 177100… Sphyra…      37 Quanti… <NA>  <NA> 
##  4 Albania Blue and…      45 Shrimp… 228020… Ariste…      37 Quanti… <NA>  <NA> 
##  5 Albania Blue whi…      32 Cods, … 148040… Microm…      37 Quanti… <NA>  <NA> 
##  6 Albania Bluefish       37 Miscel… 170202… Pomato…      37 Quanti… <NA>  <NA> 
##  7 Albania Bogue          33 Miscel… 170392… Boops …      37 Quanti… <NA>  <NA> 
##  8 Albania Caramote…      45 Shrimp… 228010… Penaeu…      37 Quanti… <NA>  <NA> 
##  9 Albania Catshark…      38 Sharks… 108010… Scylio…      37 Quanti… <NA>  <NA> 
## 10 Albania Common c…      57 Squids… 321020… Sepia …      37 Quanti… <NA>  <NA> 
## # … with 17,682 more rows, 61 more variables: x1952 <fct>, x1953 <fct>,
## #   x1954 <fct>, x1955 <fct>, x1956 <fct>, x1957 <fct>, x1958 <fct>,
## #   x1959 <fct>, x1960 <fct>, x1961 <fct>, x1962 <fct>, x1963 <fct>,
## #   x1964 <fct>, x1965 <fct>, x1966 <fct>, x1967 <fct>, x1968 <fct>,
## #   x1969 <fct>, x1970 <fct>, x1971 <fct>, x1972 <fct>, x1973 <fct>,
## #   x1974 <fct>, x1975 <fct>, x1976 <fct>, x1977 <fct>, x1978 <fct>,
## #   x1979 <fct>, x1980 <fct>, x1981 <fct>, x1982 <fct>, x1983 <fct>, …
```
…
4. Refocus the data only to include country, isscaap_taxonomic_group, asfis_species_name, asfis_species_number, year, catch.

```r
fisheries_tidy %>% 
  select ( "country", "isscaap_taxonomic_group", "asfis_species_name", "asfis_species_number", "year", "catch")
```

```
## # A tibble: 376,771 × 6
##    country isscaap_taxonomic_group asfis_species_name asfis_specie…¹  year catch
##    <fct>   <fct>                   <fct>              <fct>          <dbl> <dbl>
##  1 Albania Sharks, rays, chimaeras Squatinidae        10903XXXXX      1995    NA
##  2 Albania Sharks, rays, chimaeras Squatinidae        10903XXXXX      1996    53
##  3 Albania Sharks, rays, chimaeras Squatinidae        10903XXXXX      1997    20
##  4 Albania Sharks, rays, chimaeras Squatinidae        10903XXXXX      1998    31
##  5 Albania Sharks, rays, chimaeras Squatinidae        10903XXXXX      1999    30
##  6 Albania Sharks, rays, chimaeras Squatinidae        10903XXXXX      2000    30
##  7 Albania Sharks, rays, chimaeras Squatinidae        10903XXXXX      2001    16
##  8 Albania Sharks, rays, chimaeras Squatinidae        10903XXXXX      2002    79
##  9 Albania Sharks, rays, chimaeras Squatinidae        10903XXXXX      2003     1
## 10 Albania Sharks, rays, chimaeras Squatinidae        10903XXXXX      2004     4
## # … with 376,761 more rows, and abbreviated variable name ¹​asfis_species_number
```

5. Based on the asfis_species_number, how many distinct fish species were caught as part of these data?

```r
fisheries_tidy %>% 
  group_by(asfis_species_number) %>% 
  summarize(n=n())
```

```
## # A tibble: 1,551 × 2
##    asfis_species_number     n
##    <fct>                <int>
##  1 1020100101             103
##  2 1020100201               2
##  3 10201XXXXX              23
##  4 1030300603              10
##  5 10303XXXXX              54
##  6 1050200201              45
##  7 1050200301               4
##  8 1050200502              26
##  9 1060100301             119
## 10 1060200501              23
## # … with 1,541 more rows
```
…
