…
```r
colleges
```

```
## # A tibble: 341 × 10
##    INSTNM      CITY  STABBR ZIP   ADM_R…¹ SAT_AVG PCIP26 COSTT…² C150_…³ PFTFT…⁴
##    <chr>       <chr> <chr>  <chr>   <dbl>   <dbl>  <dbl>   <dbl>   <dbl>   <dbl>
##  1 Grossmont … El C… CA     9202…      NA      NA 0.0016    7956  NA       0.355
##  2 College of… Visa… CA     9327…      NA      NA 0.0066    8109  NA       0.541
##  3 College of… San … CA     9440…      NA      NA 0.0038    8278  NA       0.357
##  4 Ventura Co… Vent… CA     9300…      NA      NA 0.0035    8407  NA       0.382
##  5 Oxnard Col… Oxna… CA     9303…      NA      NA 0.0085    8516  NA       0.275
##  6 Moorpark C… Moor… CA     9302…      NA      NA 0.0151    8577  NA       0.429
##  7 Skyline Co… San … CA     9406…      NA      NA 0         8580   0.233   0.231
##  8 Glendale C… Glen… CA     9120…      NA      NA 0.002     9181  NA       0.421
##  9 Citrus Col… Glen… CA     9174…      NA      NA 0.0021    9281  NA       0.440
## 10 Fresno Cit… Fres… CA     93741      NA      NA 0.0324    9370  NA       0.366
## # … with 331 more rows, and abbreviated variable names ¹​ADM_RATE, ²​COSTT4_A,
## #   ³​C150_4_POOLED, ⁴​PFTFTUG1_EF
```
…
```r
colleges
```

```
## # A tibble: 341 × 10
##    instnm      city  stabbr zip   adm_r…¹ sat_avg pcip26 costt…² c150_…³ pftft…⁴
##    <chr>       <chr> <chr>  <chr>   <dbl>   <dbl>  <dbl>   <dbl>   <dbl>   <dbl>
##  1 Grossmont … El C… CA     9202…      NA      NA 0.0016    7956  NA       0.355
##  2 College of… Visa… CA     9327…      NA      NA 0.0066    8109  NA       0.541
##  3 College of… San … CA     9440…      NA      NA 0.0038    8278  NA       0.357
##  4 Ventura Co… Vent… CA     9300…      NA      NA 0.0035    8407  NA       0.382
##  5 Oxnard Col… Oxna… CA     9303…      NA      NA 0.0085    8516  NA       0.275
##  6 Moorpark C… Moor… CA     9302…      NA      NA 0.0151    8577  NA       0.429
##  7 Skyline Co… San … CA     9406…      NA      NA 0         8580   0.233   0.231
##  8 Glendale C… Glen… CA     9120…      NA      NA 0.002     9181  NA       0.421
##  9 Citrus Col… Glen… CA     9174…      NA      NA 0.0021    9281  NA       0.440
## 10 Fresno Cit… Fres… CA     93741      NA      NA 0.0324    9370  NA       0.366
## # … with 331 more rows, and abbreviated variable names ¹​adm_rate, ²​costt4_a,
## #   ³​c150_4_pooled, ⁴​pftftug1_ef
```

```r
# clean data
```

2. Which cities in California have the highest number of colleges?

```r
colleges %>% 
  group_by(city) %>% 
  count(city,stabbr, sort=T)
```

```
## # A tibble: 161 × 3
## # Groups:   city [161]
##    city          stabbr     n
##    <chr>         <chr>  <int>
##  1 Los Angeles   CA        24
##  2 San Diego     CA        18
##  3 San Francisco CA        15
##  4 Sacramento    CA        10
##  5 Berkeley      CA         9
##  6 Oakland       CA         9
##  7 Claremont     CA         7
##  8 Pasadena      CA         6
##  9 Fresno        CA         5
## 10 Irvine        CA         5
## # … with 151 more rows
```
…
4. The column `COSTT4_A` is the annual cost of each institution. Which city has the highest average cost? Where is it located?

```r
colleges %>% 
  group_by(city, stabbr) %>% 
  summarize(avg_cost=mean(costt4_a, na.rm = T),
            .groups = 'keep') %>% 
  arrange(desc(avg_cost))
```

```
## # A tibble: 161 × 3
## # Groups:   city, stabbr [161]
##    city                stabbr avg_cost
##    <chr>               <chr>     <dbl>
##  1 Claremont           CA        66498
##  2 Malibu              CA        66152
##  3 Valencia            CA        64686
##  4 Orange              CA        64501
##  5 Redlands            CA        61542
##  6 Moraga              CA        61095
##  7 Atherton            CA        56035
##  8 Thousand Oaks       CA        54373
##  9 Rancho Palos Verdes CA        50758
## 10 La Verne            CA        50603
## # … with 151 more rows
```
…
