…
Code chunk only restricted for carnivores data frame

```r
carnivore.animals <-filter(homerange, trophic.guild == "carnivore")
```

Data frame for carivores 

```r
filter(homerange, trophic.guild == "carnivore")
```

```
## # A tibble: 342 × 24
##    taxon  commo…¹ class order family genus species prima…² N     mean.…³ log10…⁴
##    <fct>  <chr>   <chr> <fct> <chr>  <chr> <chr>   <chr>   <chr>   <dbl>   <dbl>
##  1 lake … americ… acti… angu… angui… angu… rostra… teleme… 16       887    2.95 
##  2 river… blackt… acti… cypr… catos… moxo… poecil… mark-r… <NA>     562    2.75 
##  3 river… centra… acti… cypr… cypri… camp… anomal… mark-r… 20        34    1.53 
##  4 river… rosysi… acti… cypr… cypri… clin… fundul… mark-r… 26         4    0.602
##  5 river… longno… acti… cypr… cypri… rhin… catara… mark-r… 17         4    0.602
##  6 river… muskel… acti… esoc… esoci… esox  masqui… teleme… 5       3525    3.55 
##  7 marin… pollack acti… gadi… gadid… poll… pollac… teleme… 2        737.   2.87 
##  8 marin… saithe  acti… gadi… gadid… poll… virens  teleme… 2        449.   2.65 
##  9 marin… giant … acti… perc… caran… cara… ignobi… teleme… 4        726.   2.86 
## 10 lake … rock b… acti… perc… centr… ambl… rupest… mark-r… 16       196    2.29 
## # … with 332 more rows, 13 more variables: alternative.mass.reference <chr>,
## #   mean.hra.m2 <dbl>, log10.hra <dbl>, hra.reference <chr>, realm <chr>,
## #   thermoregulation <chr>, locomotion <chr>, trophic.guild <chr>,
## #   dimension <dbl>, preymass <dbl>, log10.preymass <dbl>, PPMR <dbl>,
## #   prey.size.reference <chr>, and abbreviated variable names ¹​common.name,
## #   ²​primarymethod, ³​mean.mass.g, ⁴​log10.mass
```

Code chunk only restricted for herbivores data frame

```r
herbivore.animals <-filter(homerange, trophic.guild == "herbivore")
```

Data for herbivores

```r
filter(homerange, trophic.guild == "herbivore")
```

```
## # A tibble: 227 × 24
##    taxon  commo…¹ class order family genus species prima…² N     mean.…³ log10…⁴
##    <fct>  <chr>   <chr> <fct> <chr>  <chr> <chr>   <chr>   <chr>   <dbl>   <dbl>
##  1 marin… lined … acti… perc… acant… acan… lineat… direct… <NA>   109.     2.04 
##  2 marin… orange… acti… perc… acant… naso  litura… teleme… 8      772.     2.89 
##  3 marin… bluesp… acti… perc… acant… naso  unicor… teleme… 7      152.     2.18 
##  4 marin… redlip… acti… perc… blenn… ophi… atlant… direct… 20       6.2    0.792
##  5 marin… bermud… acti… perc… kypho… kyph… sectat… teleme… 11    1087.     3.04 
##  6 marin… cherub… acti… perc… pomac… cent… argi    direct… <NA>     2.5    0.398
##  7 marin… damsel… acti… perc… pomac… chro… chromis direct… <NA>    28.4    1.45 
##  8 marin… twinsp… acti… perc… pomac… chry… biocel… direct… 18       9.19   0.963
##  9 marin… wards … acti… perc… pomac… poma… wardi   direct… <NA>    10.5    1.02 
## 10 marin… austra… acti… perc… pomac… steg… apical… direct… <NA>    45.3    1.66 
## # … with 217 more rows, 13 more variables: alternative.mass.reference <chr>,
## #   mean.hra.m2 <dbl>, log10.hra <dbl>, hra.reference <chr>, realm <chr>,
## #   thermoregulation <chr>, locomotion <chr>, trophic.guild <chr>,
## #   dimension <dbl>, preymass <dbl>, log10.preymass <dbl>, PPMR <dbl>,
## #   prey.size.reference <chr>, and abbreviated variable names ¹​common.name,
## #   ²​primarymethod, ³​mean.mass.g, ⁴​log10.mass
```
…
