…
## nycflights13

```r
flights
```

```
## # A tibble: 336,776 × 19
##     year month   day dep_time sched_de…¹ dep_d…² arr_t…³ sched…⁴ arr_d…⁵ carrier
##    <int> <int> <int>    <int>      <int>   <dbl>   <int>   <int>   <dbl> <chr>  
##  1  2013     1     1      517        515       2     830     819      11 UA     
##  2  2013     1     1      533        529       4     850     830      20 UA     
##  3  2013     1     1      542        540       2     923     850      33 AA     
##  4  2013     1     1      544        545      -1    1004    1022     -18 B6     
##  5  2013     1     1      554        600      -6     812     837     -25 DL     
##  6  2013     1     1      554        558      -4     740     728      12 UA     
##  7  2013     1     1      555        600      -5     913     854      19 B6     
##  8  2013     1     1      557        600      -3     709     723     -14 EV     
##  9  2013     1     1      557        600      -3     838     846      -8 B6     
## 10  2013     1     1      558        600      -2     753     745       8 AA     
## # … with 336,766 more rows, 9 more variables: flight <int>, tailnum <chr>,
## #   origin <chr>, dest <chr>, air_time <dbl>, distance <dbl>, hour <dbl>,
## #   minute <dbl>, time_hour <dttm>, and abbreviated variable names
## #   ¹​sched_dep_time, ²​dep_delay, ³​arr_time, ⁴​sched_arr_time, ⁵​arr_delay
```

## Filter
Flights between JFK and SFO airports.

```r
flights %>% 
  filter(origin=="JFK" & dest=="SFO")
```

```
## # A tibble: 8,204 × 19
##     year month   day dep_time sched_de…¹ dep_d…² arr_t…³ sched…⁴ arr_d…⁵ carrier
##    <int> <int> <int>    <int>      <int>   <dbl>   <int>   <int>   <dbl> <chr>  
##  1  2013     1     1      611        600      11     945     931      14 UA     
##  2  2013     1     1      655        700      -5    1037    1045      -8 DL     
##  3  2013     1     1      729        730      -1    1049    1115     -26 VX     
##  4  2013     1     1      734        737      -3    1047    1113     -26 B6     
##  5  2013     1     1      745        745       0    1135    1125      10 AA     
##  6  2013     1     1      803        800       3    1132    1144     -12 UA     
##  7  2013     1     1     1029       1030      -1    1427    1355      32 AA     
##  8  2013     1     1     1031       1030       1    1353    1415     -22 VX     
##  9  2013     1     1     1112       1100      12    1440    1438       2 UA     
## 10  2013     1     1     1124       1100      24    1435    1431       4 B6     
## # … with 8,194 more rows, 9 more variables: flight <int>, tailnum <chr>,
## #   origin <chr>, dest <chr>, air_time <dbl>, distance <dbl>, hour <dbl>,
## #   minute <dbl>, time_hour <dttm>, and abbreviated variable names
## #   ¹​sched_dep_time, ²​dep_delay, ³​arr_time, ⁴​sched_arr_time, ⁵​arr_delay
```
…
