…
```r
library ("janitor")
```

The `clean_names` function takes care of everything in one line! Now that's a superpower!

```r
superhero_powers <- 
  janitor::clean_names(superhero_powers)
superhero_powers
```

```
## # A tibble: 667 × 168
##    hero_names    agility accel…¹ lante…² dimen…³ cold_…⁴ durab…⁵ stealth energ…⁶
##    <chr>         <lgl>   <lgl>   <lgl>   <lgl>   <lgl>   <lgl>   <lgl>   <lgl>  
##  1 3-D Man       TRUE    FALSE   FALSE   FALSE   FALSE   FALSE   FALSE   FALSE  
##  2 A-Bomb        FALSE   TRUE    FALSE   FALSE   FALSE   TRUE    FALSE   FALSE  
##  3 Abe Sapien    TRUE    TRUE    FALSE   FALSE   TRUE    TRUE    FALSE   FALSE  
##  4 Abin Sur      FALSE   FALSE   TRUE    FALSE   FALSE   FALSE   FALSE   FALSE  
##  5 Abomination   FALSE   TRUE    FALSE   FALSE   FALSE   FALSE   FALSE   FALSE  
##  6 Abraxas       FALSE   FALSE   FALSE   TRUE    FALSE   FALSE   FALSE   FALSE  
##  7 Absorbing Man FALSE   FALSE   FALSE   FALSE   TRUE    TRUE    FALSE   TRUE   
##  8 Adam Monroe   FALSE   TRUE    FALSE   FALSE   FALSE   FALSE   FALSE   FALSE  
##  9 Adam Strange  FALSE   FALSE   FALSE   FALSE   FALSE   TRUE    TRUE    FALSE  
## 10 Agent Bob     FALSE   FALSE   FALSE   FALSE   FALSE   FALSE   TRUE    FALSE  
## # … with 657 more rows, 159 more variables: flight <lgl>, danger_sense <lgl>,
## #   underwater_breathing <lgl>, marksmanship <lgl>, weapons_master <lgl>,
## #   power_augmentation <lgl>, animal_attributes <lgl>, longevity <lgl>,
## #   intelligence <lgl>, super_strength <lgl>, cryokinesis <lgl>,
## #   telepathy <lgl>, energy_armor <lgl>, energy_blasts <lgl>,
## #   duplication <lgl>, size_changing <lgl>, density_control <lgl>,
## #   stamina <lgl>, astral_travel <lgl>, audio_control <lgl>, dexterity <lgl>, …
```



## `tabyl`
The `janitor` package has many awesome functions that we will explore. Here is its version of `table` which not only produces counts but also percentages. Very handy! Let's use it to explore the proportion of good guys and bad guys in the `superhero_info` data.  


```r
#tabyl(superhero_info, alignment)
superhero_info
```

```
## # A tibble: 734 × 10
##    name       gender eye_c…¹ race  hair_…² height publi…³ skin_…⁴ align…⁵ weight
##    <chr>      <chr>  <chr>   <chr> <chr>    <dbl> <chr>   <chr>   <chr>    <dbl>
##  1 A-Bomb     Male   yellow  Human No Hair    203 Marvel… <NA>    good       441
##  2 Abe Sapien Male   blue    Icth… No Hair    191 Dark H… blue    good        65
##  3 Abin Sur   Male   blue    Unga… No Hair    185 DC Com… red     good        90
##  4 Abominati… Male   green   Huma… No Hair    203 Marvel… <NA>    bad        441
##  5 Abraxas    Male   blue    Cosm… Black       NA Marvel… <NA>    bad         NA
##  6 Absorbing… Male   blue    Human No Hair    193 Marvel… <NA>    bad        122
##  7 Adam Monr… Male   blue    <NA>  Blond       NA NBC - … <NA>    good        NA
##  8 Adam Stra… Male   blue    Human Blond      185 DC Com… <NA>    good        88
##  9 Agent 13   Female blue    <NA>  Blond      173 Marvel… <NA>    good        61
## 10 Agent Bob  Male   brown   Human Brown      178 Marvel… <NA>    good        81
## # … with 724 more rows, and abbreviated variable names ¹​eye_color, ²​hair_color,
## #   ³​publisher, ⁴​skin_color, ⁵​alignment
```

2. Notice that we have some neutral superheros! Who are they?
we find the names of the 

```r
superhero_info %>% 
  filter(race=="Human")
```

```
## # A tibble: 208 × 10
##    name       gender eye_c…¹ race  hair_…² height publi…³ skin_…⁴ align…⁵ weight
##    <chr>      <chr>  <chr>   <chr> <chr>    <dbl> <chr>   <chr>   <chr>    <dbl>
##  1 A-Bomb     Male   yellow  Human No Hair    203 Marvel… <NA>    good       441
##  2 Absorbing… Male   blue    Human No Hair    193 Marvel… <NA>    bad        122
##  3 Adam Stra… Male   blue    Human Blond      185 DC Com… <NA>    good        88
##  4 Agent Bob  Male   brown   Human Brown      178 Marvel… <NA>    good        81
##  5 Alex Merc… Male   <NA>    Human <NA>        NA Wildst… <NA>    bad         NA
##  6 Alfred Pe… Male   blue    Human Black      178 DC Com… <NA>    good        72
##  7 Ammo       Male   brown   Human Black      188 Marvel… <NA>    bad        101
##  8 Animal Man Male   blue    Human Blond      183 DC Com… <NA>    good        83
##  9 Ant-Man    Male   blue    Human Blond      211 Marvel… <NA>    good       122
## 10 Ant-Man II Male   blue    Human Blond      183 Marvel… <NA>    good        86
## # … with 198 more rows, and abbreviated variable names ¹​eye_color, ²​hair_color,
## #   ³​publisher, ⁴​skin_color, ⁵​alignment
```

## `superhero_info`
3. Let's say we are only interested in the variables name, alignment, and "race". How would you isolate these variables from `superhero_info`?

```r
superhero_info %>% 
  select(alignment, race)
```

```
## # A tibble: 734 × 2
##    alignment race             
##    <chr>     <chr>            
##  1 good      Human            
##  2 good      Icthyo Sapien    
##  3 good      Ungaran          
##  4 bad       Human / Radiation
##  5 bad       Cosmic Entity    
##  6 bad       Human            
##  7 good      <NA>             
##  8 good      Human            
##  9 good      <NA>             
## 10 good      Human            
## # … with 724 more rows
```

## Not Human
4. List all of the superheros that are not human.

```r
superhero_info %>%
  filter(race!= "Human")
```

```
## # A tibble: 222 × 10
##    name       gender eye_c…¹ race  hair_…² height publi…³ skin_…⁴ align…⁵ weight
##    <chr>      <chr>  <chr>   <chr> <chr>    <dbl> <chr>   <chr>   <chr>    <dbl>
##  1 Abe Sapien Male   blue    Icth… No Hair    191 Dark H… blue    good        65
##  2 Abin Sur   Male   blue    Unga… No Hair    185 DC Com… red     good        90
##  3 Abominati… Male   green   Huma… No Hair    203 Marvel… <NA>    bad        441
##  4 Abraxas    Male   blue    Cosm… Black       NA Marvel… <NA>    bad         NA
##  5 Ajax       Male   brown   Cybo… Black      193 Marvel… <NA>    bad         90
##  6 Alien      Male   <NA>    Xeno… No Hair    244 Dark H… black   bad        169
##  7 Amazo      Male   red     Andr… <NA>       257 DC Com… <NA>    bad        173
##  8 Angel      Male   <NA>    Vamp… <NA>        NA Dark H… <NA>    good        NA
##  9 Angel Dust Female yellow  Muta… Black      165 Marvel… <NA>    good        57
## 10 Anti-Moni… Male   yellow  God … No Hair     61 DC Com… <NA>    bad         NA
## # … with 212 more rows, and abbreviated variable names ¹​eye_color, ²​hair_color,
## #   ³​publisher, ⁴​skin_color, ⁵​alignment
```

## Good and Evil(check this question)
5. Let's make two different data frames, one focused on the "good guys" and another focused on the "bad guys".
Good Guys dataframe


```r
alignment_category<- select (superhero_info,"name", "hair_color", "race", "alignment","height", "weight")
good_guys <- filter(alignment_category, alignment =="good")
good_guys
```

```
## # A tibble: 496 × 6
##    name         hair_color race          alignment height weight
##    <chr>        <chr>      <chr>         <chr>      <dbl>  <dbl>
##  1 A-Bomb       No Hair    Human         good         203    441
##  2 Abe Sapien   No Hair    Icthyo Sapien good         191     65
##  3 Abin Sur     No Hair    Ungaran       good         185     90
##  4 Adam Monroe  Blond      <NA>          good          NA     NA
##  5 Adam Strange Blond      Human         good         185     88
##  6 Agent 13     Blond      <NA>          good         173     61
##  7 Agent Bob    Brown      Human         good         178     81
##  8 Agent Zero   <NA>       <NA>          good         191    104
##  9 Alan Scott   Blond      <NA>          good         180     90
## 10 Alex Woolsly <NA>       <NA>          good          NA     NA
## # … with 486 more rows
```
Bad Guys Data frame

```r
alignment_category<- select (superhero_info, "name", "hair_color", "race", "alignment","height")
bad_guys <-filter (alignment_category, alignment =="bad")
bad_guys
```

```
## # A tibble: 207 × 5
##    name          hair_color race              alignment height
##    <chr>         <chr>      <chr>             <chr>      <dbl>
##  1 Abomination   No Hair    Human / Radiation bad          203
##  2 Abraxas       Black      Cosmic Entity     bad           NA
##  3 Absorbing Man No Hair    Human             bad          193
##  4 Air-Walker    White      <NA>              bad          188
##  5 Ajax          Black      Cyborg            bad          193
##  6 Alex Mercer   <NA>       Human             bad           NA
##  7 Alien         No Hair    Xenomorph XX121   bad          244
##  8 Amazo         <NA>       Android           bad          257
##  9 Ammo          Black      Human             bad          188
## 10 Angela        <NA>       <NA>              bad           NA
## # … with 197 more rows
```


6. For the good guys, use the `tabyl` function to summarize their "race".

```r
#tabyl(good_guys, race)
good_guys
```

```
## # A tibble: 496 × 6
##    name         hair_color race          alignment height weight
##    <chr>        <chr>      <chr>         <chr>      <dbl>  <dbl>
##  1 A-Bomb       No Hair    Human         good         203    441
##  2 Abe Sapien   No Hair    Icthyo Sapien good         191     65
##  3 Abin Sur     No Hair    Ungaran       good         185     90
##  4 Adam Monroe  Blond      <NA>          good          NA     NA
##  5 Adam Strange Blond      Human         good         185     88
##  6 Agent 13     Blond      <NA>          good         173     61
##  7 Agent Bob    Brown      Human         good         178     81
##  8 Agent Zero   <NA>       <NA>          good         191    104
##  9 Alan Scott   Blond      <NA>          good         180     90
## 10 Alex Woolsly <NA>       <NA>          good          NA     NA
## # … with 486 more rows
```
…
8. Among the bad guys, who are the male humans over 200 inches in height?

```r
filter(bad_guys, height>=200 )
```

```
## # A tibble: 25 × 5
##    name           hair_color race              alignment height
##    <chr>          <chr>      <chr>             <chr>      <dbl>
##  1 Abomination    No Hair    Human / Radiation bad          203
##  2 Alien          No Hair    Xenomorph XX121   bad          244
##  3 Amazo          <NA>       Android           bad          257
##  4 Apocalypse     Black      Mutant            bad          213
##  5 Bane           <NA>       Human             bad          203
##  6 Bloodaxe       Brown      Human             bad          218
##  7 Darkseid       No Hair    New God           bad          267
##  8 Doctor Doom    Brown      Human             bad          201
##  9 Doctor Doom II Brown      <NA>              bad          201
## 10 Doomsday       White      Alien             bad          244
## # … with 15 more rows
```

9. OK, so are there more good guys or bad guys that are bald (personal interest)?

```r
 bad_guys %>%
  select(name, hair_color,race) %>%
  filter(hair_color == "No Hair") 
```

```
## # A tibble: 35 × 3
##    name          hair_color race             
##    <chr>         <chr>      <chr>            
##  1 Abomination   No Hair    Human / Radiation
##  2 Absorbing Man No Hair    Human            
##  3 Alien         No Hair    Xenomorph XX121  
##  4 Annihilus     No Hair    <NA>             
##  5 Anti-Monitor  No Hair    God / Eternal    
##  6 Black Manta   No Hair    Human            
##  7 Bloodwraith   No Hair    <NA>             
##  8 Brainiac      No Hair    Android          
##  9 Darkseid      No Hair    New God          
## 10 Darth Vader   No Hair    Cyborg           
## # … with 25 more rows
```

```r
good_guys %>%
  select(name, hair_color,race) %>%
  filter(hair_color == "No Hair")
```

```
## # A tibble: 37 × 3
##    name            hair_color race         
##    <chr>           <chr>      <chr>        
##  1 A-Bomb          No Hair    Human        
##  2 Abe Sapien      No Hair    Icthyo Sapien
##  3 Abin Sur        No Hair    Ungaran      
##  4 Beta Ray Bill   No Hair    <NA>         
##  5 Bishop          No Hair    Mutant       
##  6 Black Lightning No Hair    <NA>         
##  7 Blaquesmith     No Hair    <NA>         
##  8 Bloodhawk       No Hair    Mutant       
##  9 Crimson Dynamo  No Hair    <NA>         
## 10 Donatello       No Hair    Mutant       
## # … with 27 more rows
```
…
14. How many superheros have a combination of accelerated healing, durability, and super strength?

```r
superhero_powers %>% 
  select(hero_names, accelerated_healing, durability,super_strength) %>% 
  filter(accelerated_healing=="TRUE" & durability=="TRUE" & super_strength=="TRUE")
```

```
## # A tibble: 97 × 4
##    hero_names   accelerated_healing durability super_strength
##    <chr>        <lgl>               <lgl>      <lgl>         
##  1 A-Bomb       TRUE                TRUE       TRUE          
##  2 Abe Sapien   TRUE                TRUE       TRUE          
##  3 Angel        TRUE                TRUE       TRUE          
##  4 Anti-Monitor TRUE                TRUE       TRUE          
##  5 Anti-Venom   TRUE                TRUE       TRUE          
##  6 Aquaman      TRUE                TRUE       TRUE          
##  7 Arachne      TRUE                TRUE       TRUE          
##  8 Archangel    TRUE                TRUE       TRUE          
##  9 Ardina       TRUE                TRUE       TRUE          
## 10 Ares         TRUE                TRUE       TRUE          
## # … with 87 more rows
```
…
