…
```r
# first load the naniar package 
```


```r
naniar::miss_var_summary(amniota_clean)
```

```
## # A tibble: 36 × 3
##    variable                       n_miss pct_miss
##    <chr>                           <int>    <dbl>
##  1 subspecies                      21322    100  
##  2 female_body_mass_at_maturity_g  21318    100. 
##  3 female_svl_at_maturity_cm       21120     99.1
##  4 fledging_mass_g                 21111     99.0
##  5 male_svl_cm                     21040     98.7
##  6 no_sex_maturity_d               20860     97.8
##  7 egg_width_mm                    20727     97.2
##  8 egg_length_mm                   20702     97.1
##  9 weaning_weight_g                20258     95.0
## 10 female_svl_cm                   20242     94.9
## # … with 26 more rows
```

**7. Use the package `naniar` to produce a summary, including percentages, of missing data in each column for the `amphibio` data.**

```r
naniar::miss_var_summary(amphibio)
```

```
## # A tibble: 38 × 3
##    variable n_miss pct_miss
##    <chr>     <int>    <dbl>
##  1 Fruits     6774    100. 
##  2 Flowers    6772     99.9
##  3 Seeds      6772     99.9
##  4 Leaves     6752     99.6
##  5 Dry_cold   6735     99.4
##  6 Vert       6657     98.2
##  7 OBS        6651     98.2
##  8 Wet_cold   6625     97.8
##  9 Crepu      6608     97.5
## 10 Dry_warm   6572     97.0
## # … with 28 more rows
```
…
```r
amphibio2
```

```
## # A tibble: 27,104 × 36
##    id      Order Family   Genus Species Leaves Flowers Seeds Fruits Arthro  Vert
##    <chr>   <chr> <chr>    <chr> <chr>    <dbl>   <dbl> <dbl> <lgl>   <dbl> <dbl>
##  1 Anf0001 Anura Allophr… Allo… Alloph…     NA      NA    NA NA          1    NA
##  2 Anf0001 Anura Allophr… Allo… Alloph…     NA      NA    NA NA          1    NA
##  3 Anf0001 Anura Allophr… Allo… Alloph…     NA      NA    NA NA          1    NA
##  4 Anf0001 Anura Allophr… Allo… Alloph…     NA      NA    NA NA          1    NA
##  5 Anf0002 Anura Alytidae Alyt… Alytes…     NA      NA    NA NA          1    NA
##  6 Anf0002 Anura Alytidae Alyt… Alytes…     NA      NA    NA NA          1    NA
##  7 Anf0002 Anura Alytidae Alyt… Alytes…     NA      NA    NA NA          1    NA
##  8 Anf0002 Anura Alytidae Alyt… Alytes…     NA      NA    NA NA          1    NA
##  9 Anf0003 Anura Alytidae Alyt… Alytes…     NA      NA    NA NA          1    NA
## 10 Anf0003 Anura Alytidae Alyt… Alytes…     NA      NA    NA NA          1    NA
## # … with 27,094 more rows, and 25 more variables: Diu <dbl>, Noc <dbl>,
## #   Crepu <dbl>, Wet_warm <dbl>, Wet_cold <dbl>, Dry_warm <dbl>,
## #   Dry_cold <dbl>, Body_mass_g <dbl>, Age_at_maturity_min_y <dbl>,
## #   Age_at_maturity_max_y <dbl>, Body_size_mm <dbl>,
## #   Size_at_maturity_min_mm <dbl>, Size_at_maturity_max_mm <dbl>,
## #   Longevity_max_y <dbl>, Litter_size_min_n <dbl>, Litter_size_max_n <dbl>,
## #   Reproductive_output_y <dbl>, Offspring_size_min_mm <dbl>, …
```
…
